Negativas de acesso a informação no governo Federal
…
# Step 2: Apply a model (or set of models)
# sw_tidy
ts_controversos_nest %>% 
  mutate(tidy = map(fit_ets, sw_tidy)) %>%
    unnest(tidy) %>%
    spread(key = controversos, value = estimate)
#> # A tibble: 88 x 13
#>    data            data_ts     fit_ets term  dados_pessoais decisao desarrazoado
#>    <list>          <list>      <list>  <chr>          <dbl>   <dbl>        <dbl>
#>  1 <tibble [77 x ~ <ts [77 x ~ <ets>   alpha          0.156 NA         NA       
#>  2 <tibble [77 x ~ <ts [77 x ~ <ets>   l              4.00  NA         NA       
#>  3 <tibble [77 x ~ <ts [77 x ~ <ets>   alpha         NA      0.0976    NA       
#>  4 <tibble [77 x ~ <ts [77 x ~ <ets>   l             NA     14.1       NA       
#>  5 <tibble [77 x ~ <ts [77 x ~ <ets>   alpha         NA     NA          0.0311  
#>  6 <tibble [77 x ~ <ts [77 x ~ <ets>   b             NA     NA          0.495   
#>  7 <tibble [77 x ~ <ts [77 x ~ <ets>   beta          NA     NA          0.0310  
#>  8 <tibble [77 x ~ <ts [77 x ~ <ets>   gamma         NA     NA          0.000205
#>  9 <tibble [77 x ~ <ts [77 x ~ <ets>   l             NA     NA         12.2     
#> 10 <tibble [77 x ~ <ts [77 x ~ <ets>   phi           NA     NA          0.898   
#> # ... with 78 more rows, and 6 more variables: desproporcional <dbl>,
#> #   fishing <dbl>, generico <dbl>, lgpd <dbl>, sigilo <dbl>,
#> #   trabalho_adic <dbl>
…
# sw_tidy_decomp
ts_controversos_nest %>%
    mutate(decomp = map(fit_ets, sw_tidy_decomp, timetk_idx = TRUE, rename_index = "date")) %>%
    unnest(decomp)
#> # A tibble: 693 x 9
#>    controversos  data    data_ts  fit_ets date       observed level slope season
#>    <chr>         <list>  <list>   <list>  <date>        <dbl> <dbl> <dbl>  <dbl>
#>  1 dados_pessoa~ <tibbl~ <ts [77~ <ets>   2015-01-01        0  3.37    NA     NA
#>  2 dados_pessoa~ <tibbl~ <ts [77~ <ets>   2015-02-01        4  3.47    NA     NA
#>  3 dados_pessoa~ <tibbl~ <ts [77~ <ets>   2015-03-01        5  3.71    NA     NA
#>  4 dados_pessoa~ <tibbl~ <ts [77~ <ets>   2015-04-01        7  4.23    NA     NA
#>  5 dados_pessoa~ <tibbl~ <ts [77~ <ets>   2015-05-01        5  4.35    NA     NA
#>  6 dados_pessoa~ <tibbl~ <ts [77~ <ets>   2015-06-01        2  3.98    NA     NA
#>  7 dados_pessoa~ <tibbl~ <ts [77~ <ets>   2015-07-01        7  4.45    NA     NA
#>  8 dados_pessoa~ <tibbl~ <ts [77~ <ets>   2015-08-01        3  4.22    NA     NA
#>  9 dados_pessoa~ <tibbl~ <ts [77~ <ets>   2015-09-01        0  3.56    NA     NA
#> 10 dados_pessoa~ <tibbl~ <ts [77~ <ets>   2015-10-01        2  3.32    NA     NA
#> # ... with 683 more rows
…
